669370 991486 525
538671 943918 525
357426 169011 443
538004 493522 470
806443 314953 509
97039 115432 354
552626 932576 525
390264 111672 443
328115 199743 443
528258 522014 408
710861 864937 525
824677 224574 509
161090 65818 383
37415 372443 443
363763 599888 470
506607 186673 449
996587 9388 525
688241 202736 509
542187 838023 525
257891 65006 443
222207 978396 525
22989 704355 509
252212 706323 509
444513 331919 449
42385 210625 383
353575 173145 443
23939 834676 509
486466 710438 509
81925 120000 354
46087 316173 443
957107 663593 525
599025 729853 509
572218 513221 452
800723 626150 509
646083 540138 509
630093 628105 279
257407 472525 449
406249 353218 436
574083 492644 470
647134 98727 509
375858 336738 441
501603 663833 509
181674 39529 383
651826 356781 509
128902 904497 525
596788 507376 470
3331 100200 351
331438 457476 449
439069 113226 449
942151 208918 525
393654 305045 441
470259 181416 449
634408 630958 385
512098 364421 470
287749 183371 443
314310 569301 470
856503 822311 525
310144 389655 441
539691 913551 525
675157 76505 509
55779 224644 386
247243 69588 443
960144 945244 414
837024 524553 509
535617 954458 525
498629 237015 449
421653 622841 470
73980 71587 294
440200 541159 470
54524 256739 443
279303 848428 525
475213 127874 449
793896 901573 525
77061 439060 449
109683 669972 509
199567 276243 443
976678 798381 525
433033 357960 449
484916 406849 449
826560 608453 509
166923 456718 449
515229 202431 470
354207 491640 449
710806 279645 509
23510 693868 509
962735 543680 525
662923 748747 504
186225 729089 509
671974 962614 525
506165 977648 525
747349 995997 525
870645 84536 525
229518 310422 443
333695 877522 525
990604 830075 525
967148 260251 525
649806 29504 509
432725 735724 509
733018 384869 509
623436 876414 525
844142 121141 525
172921 67193 383
580192 747370 509
776475 264073 509
21690 716650 509
911610 737035 525
472808 280451 449
806740 671318 504
146055 934118 525
105802 510270 449
879531 23283 525
407553 459696 449
124806 740121 509
28305 769908 509
528015 765574 509
148588 632782 509
454628 846903 525
943849 633532 525
522533 128439 470
833719 992164 525
697091 656255 442
340216 568347 470
124192 91745 354
34255 696539 509
586859 857061 525
799982 909872 525
95770 104825 341
252224 242273 350
614308 335536 470
287266 684163 509
922288 186212 525
662761 704913 504
44275 293205 443
321259 373800 441
758493 897022 525
853422 509350 525
335442 820090 509
863272 281987 525
422847 869367 525
22592 232872 443
526467 68537 470
63716 281303 443
181116 107279 383
731639 508729 509
419090 141483 449
39057 488195 449
631804 453293 509
751744 438091 509
941525 675149 525
125274 248121 443
